ComponentName, StatisticName, StatisticSubId, StatisticType, SimTime, Rank, Sum.u64, SumSQ.u64, Count.u64
data_memory, row_already_open, , Accumulator, 50500000000, 0, 98, 98, 98
data_memory, no_row_open, , Accumulator, 50500000000, 0, 2, 2, 2
data_memory, wrong_row_open, , Accumulator, 50500000000, 0, 0, 0, 0
data_memory, requests_received_GetS, , Accumulator, 50500000000, 0, 50, 50, 50
data_memory, requests_received_GetSEx, , Accumulator, 50500000000, 0, 0, 0, 0
data_memory, requests_received_GetX, , Accumulator, 50500000000, 0, 50, 50, 50
data_memory, requests_received_PutM, , Accumulator, 50500000000, 0, 0, 0, 0
data_memory, outstanding_requests, , Accumulator, 50500000000, 0, 814, 814, 10100000
data_memory, latency_GetS, , Accumulator, 50500000000, 0, 400, 3200, 50
data_memory, latency_GetSEx, , Accumulator, 50500000000, 0, 0, 0, 0
data_memory, latency_GetX, , Accumulator, 50500000000, 0, 414, 3522, 50
data_memory, latency_PutM, , Accumulator, 50500000000, 0, 0, 0, 0
data_memory, cycles_with_issue, , Accumulator, 50500000000, 0, 100, 100, 100
data_memory, cycles_attempted_issue_but_rejected, , Accumulator, 50500000000, 0, 0, 0, 0
data_memory, total_cycles, , Accumulator, 50500000000, 0, 10100000, 10100000, 10100000
